%YAML 1.1
%TAG !u! tag:unity3d.com,2011:
--- !u!1 &117884
GameObject:
  m_ObjectHideFlags: 0
  m_PrefabParentObject: {fileID: 0}
  m_PrefabInternal: {fileID: 100100000}
  serializedVersion: 4
  m_Component:
  - 4: {fileID: 455396}
  - 114: {fileID: 11471744}
  m_Layer: 0
  m_Name: Gerar Cenario
  m_TagString: Untagged
  m_Icon: {fileID: -7310811918437815874, guid: 0000000000000000d000000000000000, type: 0}
  m_NavMeshLayer: 0
  m_StaticEditorFlags: 0
  m_IsActive: 1
--- !u!4 &455396
Transform:
  m_ObjectHideFlags: 1
  m_PrefabParentObject: {fileID: 0}
  m_PrefabInternal: {fileID: 100100000}
  m_GameObject: {fileID: 117884}
  m_LocalRotation: {x: 0, y: 0, z: 0, w: 1}
  m_LocalPosition: {x: 0, y: 0, z: 0}
  m_LocalScale: {x: 1, y: 1, z: 1}
  m_LocalEulerAnglesHint: {x: 0, y: 0, z: 0}
  m_Children: []
  m_Father: {fileID: 0}
  m_RootOrder: 0
--- !u!114 &11471744
MonoBehaviour:
  m_ObjectHideFlags: 1
  m_PrefabParentObject: {fileID: 0}
  m_PrefabInternal: {fileID: 100100000}
  m_GameObject: {fileID: 117884}
  m_Enabled: 1
  m_EditorHideFlags: 0
  m_Script: {fileID: 11500000, guid: 17812b83c0fe662478085ea09660a019, type: 3}
  m_Name: 
  m_EditorClassIdentifier: 
  Deserto:
  - {fileID: 21300000, guid: dc72d5f265e30c640a38cb1bad401e21, type: 3}
  - {fileID: 21300000, guid: 8bdbc902c4cc54b45a4c012f7ced43c3, type: 3}
  - {fileID: 21300000, guid: 7eb04678d7fa3214db9956af5a77c748, type: 3}
  - {fileID: 21300000, guid: ee6ba9617642cfd41b1f16e2edb32688, type: 3}
  - {fileID: 21300000, guid: 5a7819c513e0bc74dab8a46afe9799ed, type: 3}
  - {fileID: 21300000, guid: fca4e7c196f548d46b640416d66a1cf5, type: 3}
  - {fileID: 21300000, guid: d8f348721e9450947946e8b987d9e102, type: 3}
  - {fileID: 21300000, guid: ffbd071a427cc1348803b231f64db897, type: 3}
  - {fileID: 21300000, guid: af2dad22cc4c8af40ba823da48aa052b, type: 3}
  - {fileID: 21300000, guid: 924dd65c2a6c6b643a80a7c0d41b2a72, type: 3}
  - {fileID: 21300000, guid: 252cf212f2fd3394187d6203ecc0a2ee, type: 3}
  - {fileID: 21300000, guid: 83322174c373f5a429cf5003330deab1, type: 3}
  - {fileID: 21300000, guid: 3bb28895d09930344b62acc068c39cbf, type: 3}
  - {fileID: 21300000, guid: 97d45200c999f254c8a170406feac256, type: 3}
  - {fileID: 21300000, guid: 26d8d98e5be7ca14bb2476f3d0befcfa, type: 3}
  - {fileID: 21300000, guid: 7f500de5725ea3e47b3b5544c00f7490, type: 3}
  Neve:
  - {fileID: 21300000, guid: 68ac945e8c3a35f46bf3f1b24dfe7985, type: 3}
  - {fileID: 21300000, guid: b06be6ed62e8ca840ac796029d8f0601, type: 3}
  - {fileID: 21300000, guid: c00cae8a0b173e743a19b1d9e186eb10, type: 3}
  - {fileID: 21300000, guid: 8815ed2fdf61027419182d23b82d1656, type: 3}
  - {fileID: 21300000, guid: 939a699bdab6013459f064ca665e5867, type: 3}
  - {fileID: 21300000, guid: ad6337c23325ced4291f3e7bfd9ca69e, type: 3}
  - {fileID: 21300000, guid: 1f3699a7631c9354b955e51ccae0d886, type: 3}
  - {fileID: 21300000, guid: a11e98c6260495e49ac2c7636b03ad07, type: 3}
  - {fileID: 21300000, guid: 2b8302c802e88bb4dabd233e263862a1, type: 3}
  - {fileID: 21300000, guid: 7cefaa1cdc040d54a87ef0d14afaed41, type: 3}
  - {fileID: 21300000, guid: 981f1628522cfc24f9189d64a1a7712a, type: 3}
  - {fileID: 21300000, guid: a189dbf43a746424498960a8fc88e409, type: 3}
  - {fileID: 21300000, guid: e1ef0831da16f9d4794e729f019bad9b, type: 3}
  - {fileID: 21300000, guid: 999d3a4598a4e4042a3fd1c9a8da7e84, type: 3}
  - {fileID: 21300000, guid: 7b7bf45ad1b52b145ac4c41f3c7f04e9, type: 3}
  - {fileID: 21300000, guid: f324d74b4fffbf844aa6a8ae3ab20079, type: 3}
  Estrada:
  - {fileID: 21300000, guid: 38bdbb22e76211647982442374165949, type: 3}
  - {fileID: 21300000, guid: f4c6b6740eaf9f342ab40dbe9f9df63d, type: 3}
  - {fileID: 21300000, guid: 135a2dd3c3962ac4f8f8e9aaf029d1e3, type: 3}
  - {fileID: 21300000, guid: d19a46e4dbafa844f9a9b1e064ba0890, type: 3}
  - {fileID: 21300000, guid: 14002dcbc0a0b8340a1ef59b9ce10cf7, type: 3}
  - {fileID: 21300000, guid: 82e5a034546451d4bab6ec3c3ffdc7b8, type: 3}
  - {fileID: 21300000, guid: b3be0be826ec32145be291b52f3fd8e2, type: 3}
  - {fileID: 21300000, guid: db4e9d882c95a254c93400a1b9ead9b1, type: 3}
  - {fileID: 21300000, guid: d45c24f284013cb4384b48f364ed4727, type: 3}
  - {fileID: 21300000, guid: 80dea71333f957c4da37f7af8dea36ff, type: 3}
  - {fileID: 21300000, guid: 7f6802396d0c5114182c2958116c47df, type: 3}
  - {fileID: 21300000, guid: d31502692e2d56f46bec04c2a4102e3c, type: 3}
  - {fileID: 21300000, guid: 94fe93ccf692e1e4eb010274e091a442, type: 3}
  - {fileID: 21300000, guid: a3727f33e09495349accb778bcf87228, type: 3}
  - {fileID: 21300000, guid: f9eb62b2afe008b48bfb918071f28004, type: 3}
  - {fileID: 21300000, guid: a182f636c9a80bc48a3924d6132e5627, type: 3}
  atualCenario:
  - {fileID: 0}
  - {fileID: 0}
  - {fileID: 0}
  - {fileID: 0}
  - {fileID: 0}
  - {fileID: 0}
  - {fileID: 0}
  - {fileID: 0}
  - {fileID: 0}
  - {fileID: 0}
  - {fileID: 0}
  - {fileID: 0}
  - {fileID: 0}
  - {fileID: 0}
  - {fileID: 0}
  - {fileID: 0}
  transitions:
  - {fileID: 1000010458791592, guid: bdeec9e31076c7746867f893e6db3595, type: 2}
  - {fileID: 1000012946343856, guid: c9a2c30db8d8d024da170a82546f63a9, type: 2}
  - {fileID: 1000011599004326, guid: 875c49798283c464590c081ca98c6d8f, type: 2}
  - {fileID: 1000012173204614, guid: f1522c1bac260ab44845982a9c91771d, type: 2}
  - {fileID: 1000014109348200, guid: 51444658882ee1a44882623a27812f63, type: 2}
  - {fileID: 1000011797947288, guid: 477b93a4fab64cf40907a33dc19d6eca, type: 2}
  enemies_air:
  - {fileID: 133630, guid: 154794aa75c839140a67e28b29bc602c, type: 2}
  - {fileID: 1000013459252738, guid: c2a8f65fe52aef944bb31c7995622b14, type: 2}
  - {fileID: 1000012349369178, guid: 80141f15de80d8a4f864a63c0b76033b, type: 2}
  - {fileID: 1000011430524482, guid: cba310ea8a9462d418a31eeee6d5441c, type: 2}
  enemies_tank:
  - {fileID: 145950, guid: 53aae6ed054733f47a5064fbec340409, type: 2}
  - {fileID: 1000010508539150, guid: 81568badc04d4a34cadbfc6e9ded1068, type: 2}
  enemies_water:
  - {fileID: 142296, guid: 644b166f61a88794aa26ee645a23a3bf, type: 2}
  - {fileID: 1000012441947278, guid: 67142415a16e30149846489d3d306965, type: 2}
  - {fileID: 1000013663012852, guid: 7f7d1137c979ce14e86f8d33bf3ac490, type: 2}
  - {fileID: 1000010086182118, guid: 14dacc59e6320ac4cb556e2f13f42817, type: 2}
  itens:
  - {fileID: 1000011639953216, guid: a5f6ebca6bccf684887c18309ac854c0, type: 2}
  medal: {fileID: 1000013966530710, guid: 1303a57375527cd4894ab127db6aca71, type: 2}
  pointSpawned_Air: 0000
  pointSpawned_Water: 00000000000000000000
  pointSpawned_Tank: 0000000000000000000000000000
  ItemIsSpawned: 00000000000000000000
  scenarios:
  - {fileID: 177590, guid: fb1cae9a05265e8479a444176851e4a0, type: 2}
  - {fileID: 159738, guid: b3c868cdfd83faf45be1058d9c4e3626, type: 2}
  - {fileID: 114490, guid: 8bfc159b2548f2d47859a348a7e73a98, type: 2}
  - {fileID: 154056, guid: d0de434f8bd2be7498d8adfe3182e4c6, type: 2}
  - {fileID: 122080, guid: bff84fb3d428f864d91f2efa928d7318, type: 2}
  - {fileID: 102294, guid: 1d7292f090ac5b84ca83a85ec2cef188, type: 2}
  - {fileID: 142430, guid: 2778bfa04bca10b4fa27203dc97ab1ed, type: 2}
  - {fileID: 148796, guid: e35e1f6a7b95e19498acebaa4704b944, type: 2}
  - {fileID: 194562, guid: 6fc8232bcb2276a4599e0193d23f4e72, type: 2}
  - {fileID: 191556, guid: 565ad13716cd2c242bbbba4fef1a60c0, type: 2}
  - {fileID: 141070, guid: c788f4eb4ec9c474a8e02aeb77dd3a9b, type: 2}
  - {fileID: 135234, guid: 6121e7e5f9ed3994598eed5b4b5773bb, type: 2}
  - {fileID: 138052, guid: eee011781bf4ac244a33255538e99c96, type: 2}
  - {fileID: 173572, guid: 5d10397a018061d4383f86bc1c5214d6, type: 2}
  - {fileID: 178922, guid: 7002aa0a877b32441ba0508422093ea6, type: 2}
  - {fileID: 189218, guid: 95fe0bb3027da19498d2244ade8057c2, type: 2}
  scenaryGeneratePoint: {fileID: 0}
  levelAux: 0
  transitionLevel: 3
  nomeAnteriorCenario: Neve
  nomeLevelAtual: Neve
  nomesLeveis:
  - Neve
  - Estrada
  - Deserto
  actualTransitionScenary: {fileID: 0}
  primeiroNivel: {fileID: 0}
--- !u!1001 &100100000
Prefab:
  m_ObjectHideFlags: 1
  serializedVersion: 2
  m_Modification:
    m_TransformParent: {fileID: 0}
    m_Modifications: []
    m_RemovedComponents: []
  m_ParentPrefab: {fileID: 0}
  m_RootGameObject: {fileID: 117884}
  m_IsPrefabParent: 1
